第五讲：整齐数据
…
```r
paper %>% group_by(uniqueID) %>% mutate(num_pub = n())
```

```
## # A tibble: 3,410 × 15
## # Groups:   uniqueID [80]
##    ut_char          uniqueID auseqence fullname surname givenname  type pub_year
##    <chr>            <chr>        <dbl> <chr>    <chr>   <chr>     <dbl>    <dbl>
##  1 WOS:00023464120… 0_105            1 WANG, JL WANG    JL            2     2006
##  2 WOS:00024951450… 0_105            1 WANG, J… WANG    JIALIANG      1     2007
##  3 WOS:00027183020… 0_105            4 Wang, J… WANG    JIALIANG      1     2009
##  4 WOS:00027449660… 0_105            1 Wang, J… WANG    JIALIANG      1     2010
##  5 WOS:00027784480… 0_105            4 Wang, J… WANG    JIALIANG      1     2010
##  6 WOS:00028784530… 0_105            5 Wang, J… WANG    JIALIANG      1     2011
##  7 WOS:00031699690… 0_105           10 Wang, J… WANG    JIALIANG      1     2013
##  8 WOS:00033592000… 0_105            3 Wang, J… WANG    JIALIANG      1     2014
##  9 WOS:00035471820… 0_105            8 Wang, J… WANG    JIALIANG      1     2015
## 10 WOS:00037123290… 0_105           11 Wang, J… WANG    JIALIANG      1     2016
## # ℹ 3,400 more rows
## # ℹ 7 more variables: paper_type <chr>, startyear <dbl>, title <chr>,
## #   journal <chr>, issn <chr>, doi <chr>, num_pub <int>
```
…
大部分情况下，`group_by`与`summarise`联合用于数据汇总。例如，下列代码可以用于计算科学家每年每种类型的论文数量

```r
paper %>% 
  group_by(uniqueID,pub_year,paper_type) %>% 
  summarise(num_pub = n())
```

```
## `summarise()` has grouped output by 'uniqueID', 'pub_year'. You can override
## using the `.groups` argument.
```

```
## # A tibble: 916 × 4
## # Groups:   uniqueID, pub_year [817]
##    uniqueID pub_year paper_type num_pub
##    <chr>       <dbl> <chr>        <int>
##  1 0_100        2007 Article          1
##  2 0_100        2011 Article          1
##  3 0_100        2013 Article          3
##  4 0_100        2014 Article          1
##  5 0_100        2015 Article          1
##  6 0_100        2016 Article          2
##  7 0_100        2017 Article          1
##  8 0_101        2007 Article          1
##  9 0_101        2008 Article          5
## 10 0_101        2009 Article          3
## # ℹ 906 more rows
```
…
---

## 其他定制操作

### 排序
`arrange`函数用于变量的顺序排列，联合`desc`可用于逆序排列。

```r
paper %>% arrange(uniqueID, desc(pub_year))
```

```
## # A tibble: 3,410 × 14
##    ut_char          uniqueID auseqence fullname surname givenname  type pub_year
##    <chr>            <chr>        <dbl> <chr>    <chr>   <chr>     <dbl>    <dbl>
##  1 WOS:00041198100… 0_100            3 Liu, Xu… LIU     XUNYING       1     2017
##  2 WOS:00037745610… 0_100            1 Liu, Xu… LIU     XUNYING       1     2016
##  3 WOS:00038267780… 0_100            2 Liu, Xu… LIU     XUNYING       1     2016
##  4 WOS:00034807070… 0_100            2 Liu, Xu… LIU     XUNYING       1     2015
##  5 WOS:00034085000… 0_100            1 Liu, X   LIU     X             2     2014
##  6 WOS:00031152480… 0_100            1 Liu, X   LIU     X             2     2013
##  7 WOS:00031303470… 0_100            1 Liu, Xu… LIU     XUNYING       1     2013
##  8 WOS:00031652420… 0_100            1 Liu, X   LIU     X             2     2013
##  9 WOS:00029770940… 0_100            2 Liu, Xu… LIU     XUNYING       1     2011
## 10 WOS:00024590980… 0_100            1 LIU, XU… LIU     XUNYING       1     2007
## # ℹ 3,400 more rows
## # ℹ 6 more variables: paper_type <chr>, startyear <dbl>, title <chr>,
## #   journal <chr>, issn <chr>, doi <chr>
```

---

### 抽样
`sample_n`函数可以从数据框中随机无放回抽样

```r
paper %>% sample(10)
```

```
## # A tibble: 3,410 × 10
##    startyear title       journal paper_type surname ut_char uniqueID  type issn 
##        <dbl> <chr>       <chr>   <chr>      <chr>   <chr>   <chr>    <dbl> <chr>
##  1      2005 a novel ar… bioche… Article    WANG    WOS:00… 0_105        2 0264…
##  2      2005 lzap, a pu… cancer… Article    WANG    WOS:00… 0_105        1 1535…
##  3      2005 targeting … stem c… Article    WANG    WOS:00… 0_105        1 1066…
##  4      2005 notch prom… stem c… Article    WANG    WOS:00… 0_105        1 1066…
##  5      2005 integrin a… cell s… Article    WANG    WOS:00… 0_105        1 1934…
##  6      2005 using a st… cancer… Article    WANG    WOS:00… 0_105        1 0008…
##  7      2005 inhibition… clinic… Article    WANG    WOS:00… 0_105        1 1078…
##  8      2005 jnk signal… cancer… Article    WANG    WOS:00… 0_105        1 0008…
##  9      2005 critical f… neuro-… Article    WANG    WOS:00… 0_105        1 1522…
## 10      2005 insulin-me… neuro-… Article    WANG    WOS:00… 0_105        1 1522…
## # ℹ 3,400 more rows
## # ℹ 1 more variable: pub_year <dbl>
```

---

### 去重复

`distinct`函数返回变量的去重结果，如果希望保留数据框中其它变量， 可以加选项`.keep_all=TRUE`。

```r
paper %>% select(uniqueID) %>% distinct()
```

```
## # A tibble: 80 × 1
##    uniqueID
##    <chr>   
##  1 0_105   
##  2 0_118   
##  3 0_143   
##  4 0_161   
##  5 0_124   
##  6 0_37    
##  7 0_39    
##  8 0_52    
##  9 0_100   
## 10 0_101   
## # ℹ 70 more rows
```

---

### 缺失值处理

`drop_na`函数用于删除指定变量有缺失值的行。

```r
paper %>% drop_na(doi)
```

```
## # A tibble: 3,410 × 14
##    ut_char          uniqueID auseqence fullname surname givenname  type pub_year
##    <chr>            <chr>        <dbl> <chr>    <chr>   <chr>     <dbl>    <dbl>
##  1 WOS:00023464120… 0_105            1 WANG, JL WANG    JL            2     2006
##  2 WOS:00024951450… 0_105            1 WANG, J… WANG    JIALIANG      1     2007
##  3 WOS:00027183020… 0_105            4 Wang, J… WANG    JIALIANG      1     2009
##  4 WOS:00027449660… 0_105            1 Wang, J… WANG    JIALIANG      1     2010
##  5 WOS:00027784480… 0_105            4 Wang, J… WANG    JIALIANG      1     2010
##  6 WOS:00028784530… 0_105            5 Wang, J… WANG    JIALIANG      1     2011
##  7 WOS:00031699690… 0_105           10 Wang, J… WANG    JIALIANG      1     2013
##  8 WOS:00033592000… 0_105            3 Wang, J… WANG    JIALIANG      1     2014
##  9 WOS:00035471820… 0_105            8 Wang, J… WANG    JIALIANG      1     2015
## 10 WOS:00037123290… 0_105           11 Wang, J… WANG    JIALIANG      1     2016
## # ℹ 3,400 more rows
## # ℹ 6 more variables: paper_type <chr>, startyear <dbl>, title <chr>,
## #   journal <chr>, issn <chr>, doi <chr>
```
…
